…
pathway_enrichment_unnest <- pathway_enrichment %>%
  distinct(type, enrichment) %>%
  distinct(enrichment) %>% 
  unnest()

pathway_enrichment_significant <- pathway_enrichment_unnest %>%
  filter(qvalue < 0.05)

pathway_enrichment_significant %>% filter(type == "trans") %>% select(Description, qvalue, geneID)
```

```
## # A tibble: 155 × 4
## # Groups:   type [1]
##    type  Description                                               qvalue geneID
##    <chr> <chr>                                                      <dbl> <chr> 
##  1 trans "Homo sapiens\r: Transcriptional regulation of granulop… 3.29e-5 CEBPA…
##  2 trans "Homo sapiens\r: RUNX1 regulates transcription of genes… 7.13e-5 GATA3…
##  3 trans "Homo sapiens\r: Transcriptional regulation by RUNX1"    7.13e-5 GATA3…
##  4 trans "Homo sapiens\r: Estrogen-dependent gene expression"     1.03e-4 FOS/F…
##  5 trans "Homo sapiens\r: Signaling by Interleukins"              1.54e-4 FOS/G…
##  6 trans "Homo sapiens\r: SUMO E3 ligases SUMOylate target prote… 1.77e-4 TFAP2…
##  7 trans "Homo sapiens\r: SUMOylation"                            1.77e-4 TFAP2…
##  8 trans "Homo sapiens\r: Interleukin-4 and Interleukin-13 signa… 2.70e-4 FOS/G…
##  9 trans "Homo sapiens\r: ESR-mediated signaling"                 2.70e-4 FOS/F…
## 10 trans "Homo sapiens\r: CLEC7A/inflammasome pathway"            2.70e-4 NFKB1…
## # … with 145 more rows
```

```r
pathway_enrichment_significant %>% filter(type == "phospho") %>% select(Description, qvalue, geneID)
```

```
## # A tibble: 165 × 4
## # Groups:   type [1]
##    type    Description                                             qvalue geneID
##    <chr>   <chr>                                                    <dbl> <chr> 
##  1 phospho "Homo sapiens\r: Regulation of TP53 Activity"          9.99e-8 PRKAA…
##  2 phospho "Homo sapiens\r: Transcriptional Regulation by TP53"   5.12e-7 PRKAA…
##  3 phospho "Homo sapiens\r: Regulation of TP53 Activity through … 3.94e-6 PRKAA…
##  4 phospho "Homo sapiens\r: Regulation of TP53 Degradation"       3.94e-6 AKT2/…
##  5 phospho "Homo sapiens\r: Regulation of TP53 Expression and De… 3.94e-6 AKT2/…
##  6 phospho "Homo sapiens\r: Cell Cycle Checkpoints"               6.61e-4 CDK1/…
##  7 phospho "Homo sapiens\r: TP53 Regulates Transcription of Cell… 6.61e-4 CDK1/…
##  8 phospho "Homo sapiens\r: G2/M Checkpoints"                     1.07e-3 CDK1/…
##  9 phospho "Homo sapiens\r: TP53 Regulates Transcription of DNA … 1.28e-3 ATR/A…
## 10 phospho "Homo sapiens\r: Cellular response to heat stress"     2.93e-3 ATR/A…
## # … with 155 more rows
```
…
